{
  "openapi": "3.0.0",
  "info": {
    "title": "bridge",
    "description": "",
    "version": "1"
  },
  "paths": {
    "/cex.bridge.BridgeService/CreateWallet": {
      "post": {
        "operationId": "cex.bridge.BridgeService.CreateWallet",
        "description": "",
        "requestBody": {
          "content": {
            "application/json": {
              "schema": {
                "$ref": "#/components/schemas/cex.bridge.CreateWalletRequest"
              }
            }
          },
          "required": true
        },
        "responses": {
          "200": {
            "description": "",
            "content": {
              "*/*": {
                "schema": {
                  "$ref": "#/components/schemas/cex.bridge.CreateWalletResponse"
                }
              }
            }
          }
        }
      }
    },
    "/cex.bridge.BridgeService/GetBalance": {
      "post": {
        "operationId": "cex.bridge.BridgeService.GetBalance",
        "description": "",
        "requestBody": {
          "content": {
            "application/json": {
              "schema": {
                "$ref": "#/components/schemas/cex.bridge.GetBalanceRequest"
              }
            }
          },
          "required": true
        },
        "responses": {
          "200": {
            "description": "",
            "content": {
              "*/*": {
                "schema": {
                  "$ref": "#/components/schemas/cex.bridge.GetBalanceResponse"
                }
              }
            }
          }
        }
      }
    },
    "/cex.bridge.BridgeService/Transfer": {
      "post": {
        "operationId": "cex.bridge.BridgeService.Transfer",
        "description": "",
        "requestBody": {
          "content": {
            "application/json": {
              "schema": {
                "$ref": "#/components/schemas/cex.bridge.TransferRequest"
              }
            }
          },
          "required": true
        },
        "responses": {
          "200": {
            "description": "",
            "content": {
              "*/*": {
                "schema": {
                  "$ref": "#/components/schemas/cex.bridge.TransferResponse"
                }
              }
            }
          }
        }
      }
    },
    "/cex.bridge.BridgeService/EstimateFee": {
      "post": {
        "operationId": "cex.bridge.BridgeService.EstimateFee",
        "description": "",
        "requestBody": {
          "content": {
            "application/json": {
              "schema": {
                "$ref": "#/components/schemas/cex.bridge.EstimateFeeRequest"
              }
            }
          },
          "required": true
        },
        "responses": {
          "200": {
            "description": "",
            "content": {
              "*/*": {
                "schema": {
                  "$ref": "#/components/schemas/cex.bridge.EstimateFeeResponse"
                }
              }
            }
          }
        }
      }
    },
    "/cex.bridge.BridgeService/GetTransaction": {
      "post": {
        "operationId": "cex.bridge.BridgeService.GetTransaction",
        "description": "",
        "requestBody": {
          "content": {
            "application/json": {
              "schema": {
                "$ref": "#/components/schemas/cex.bridge.GetTransactionRequest"
              }
            }
          },
          "required": true
        },
        "responses": {
          "200": {
            "description": "",
            "content": {
              "*/*": {
                "schema": {
                  "$ref": "#/components/schemas/cex.bridge.GetTransactionResponse"
                }
              }
            }
          }
        }
      }
    }
  },
  "components": {
    "schemas": {
      "cex.bridge.CreateWalletRequest": {
        "type": "object",
        "properties": {
          "network": {
            "$ref": "#/components/schemas/cex.bridge.NetworkEnum"
          },
          "coin": {
            "$ref": "#/components/schemas/cex.bridge.CoinEnum"
          }
        }
      },
      "cex.bridge.CreateWalletResponse": {
        "type": "object",
        "properties": {
          "address": {
            "type": "string"
          },
          "network": {
            "$ref": "#/components/schemas/cex.bridge.NetworkEnum"
          },
          "coin": {
            "$ref": "#/components/schemas/cex.bridge.CoinEnum"
          },
          "createdAt": {}
        }
      },
      "cex.bridge.GetBalanceRequest": {
        "type": "object",
        "properties": {
          "address": {
            "type": "string"
          },
          "network": {
            "$ref": "#/components/schemas/cex.bridge.NetworkEnum"
          },
          "coin": {
            "$ref": "#/components/schemas/cex.bridge.CoinEnum"
          }
        }
      },
      "cex.bridge.GetBalanceResponse": {
        "type": "object",
        "properties": {
          "amount": {
            "type": "string"
          },
          "decimals": {
            "type": "integer",
            "format": "int32"
          }
        }
      },
      "cex.bridge.TransferRequest": {
        "type": "object",
        "properties": {
          "network": {
            "$ref": "#/components/schemas/cex.bridge.NetworkEnum"
          },
          "coin": {
            "$ref": "#/components/schemas/cex.bridge.CoinEnum"
          },
          "from": {
            "type": "string"
          },
          "to": {
            "type": "string"
          },
          "amount": {
            "type": "string"
          }
        }
      },
      "cex.bridge.TransferResponse": {
        "type": "object",
        "properties": {
          "transactionId": {
            "type": "string"
          }
        }
      },
      "cex.bridge.EstimateFeeRequest": {
        "type": "object",
        "properties": {
          "network": {
            "$ref": "#/components/schemas/cex.bridge.NetworkEnum"
          },
          "coin": {
            "$ref": "#/components/schemas/cex.bridge.CoinEnum"
          },
          "from": {
            "type": "string"
          },
          "to": {
            "type": "string"
          },
          "amount": {
            "type": "string"
          }
        }
      },
      "cex.bridge.EstimateFeeResponse": {
        "type": "object",
        "properties": {
          "amount": {
            "type": "string"
          },
          "decimals": {
            "type": "integer",
            "format": "int32"
          }
        }
      },
      "cex.bridge.GetTransactionRequest": {
        "type": "object",
        "properties": {
          "network": {
            "$ref": "#/components/schemas/cex.bridge.NetworkEnum"
          },
          "coin": {
            "$ref": "#/components/schemas/cex.bridge.CoinEnum"
          },
          "transactionId": {
            "type": "string"
          }
        }
      },
      "cex.bridge.GetTransactionResponse": {
        "type": "object",
        "properties": {
          "transactionId": {
            "type": "string"
          },
          "from": {
            "type": "string"
          },
          "to": {
            "type": "string"
          },
          "amount": {
            "type": "string"
          },
          "confirmations": {
            "type": "integer",
            "format": "int32"
          }
        }
      },
      "cex.bridge.NetworkEnum": {
        "type": "number",
        "enum": [
          0,
          1,
          2,
          3
        ],
        "description": "0 - UNDEFINED \n1 - BTC \n2 - ETH \n3 - TRON "
      },
      "cex.bridge.CoinEnum": {
        "type": "number",
        "enum": [
          0,
          1,
          2,
          3,
          4
        ],
        "description": "0 - UNDEFINED \n1 - BTC \n2 - ETH \n3 - TRON \n4 - USDT "
      }
    }
  }
}